%YAML 1.1
%TAG !u! tag:unity3d.com,2011:
--- !u!114 &11400000
MonoBehaviour:
  m_ObjectHideFlags: 0
  m_CorrespondingSourceObject: {fileID: 0}
  m_PrefabInstance: {fileID: 0}
  m_PrefabAsset: {fileID: 0}
  m_GameObject: {fileID: 0}
  m_Enabled: 1
  m_EditorHideFlags: 0
  m_Script: {fileID: 11500000, guid: a6ba761323a93df328eff178a4eace1d, type: 3}
  m_Name: easy
  m_EditorClassIdentifier: 
  gameMode: 0
  FallDownDurationPerTile: 0.1
  SwapDuration: 0.1
  SingleTileDestroyWait: 0.005
  ExecutionWaitAfterMatch: 1
  FastModeSpeed: 2
  NormalModeSpeed: 0.08
  RecycleDurationPerTile: 0.03
  EllapsedTimeSpeedEffect: 5000
  theme: {fileID: 11400000, guid: c9dd0f2e94a00baae99715bad08d27f4, type: 2}
