%YAML 1.1
%TAG !u! tag:unity3d.com,2011:
--- !u!114 &11400000
MonoBehaviour:
  m_ObjectHideFlags: 0
  m_CorrespondingSourceObject: {fileID: 0}
  m_PrefabInstance: {fileID: 0}
  m_PrefabAsset: {fileID: 0}
  m_GameObject: {fileID: 0}
  m_Enabled: 1
  m_EditorHideFlags: 0
  m_Script: {fileID: 11500000, guid: d76b8b8b67da297478cfaf1d56cfc038, type: 3}
  m_Name: team2-garbages
  m_EditorClassIdentifier: 
  lowerLeft: {fileID: 2072551766276670958, guid: b0198a9b41a8cf84195d8b331a79f77e,
    type: 3}
  lowerMiddle: {fileID: 8610986013896044086, guid: b0198a9b41a8cf84195d8b331a79f77e,
    type: 3}
  centerLeft: {fileID: 3430897945587831663, guid: b0198a9b41a8cf84195d8b331a79f77e,
    type: 3}
  centerMiddle: {fileID: -6283178818711175714, guid: b0198a9b41a8cf84195d8b331a79f77e,
    type: 3}
  topLeft: {fileID: -7334479097406800038, guid: b0198a9b41a8cf84195d8b331a79f77e,
    type: 3}
  topMiddle: {fileID: 4410403219581674041, guid: b0198a9b41a8cf84195d8b331a79f77e,
    type: 3}
  oneRowLeft: {fileID: -5830811358395768167, guid: 422bf282ab870231d8b0ba7c571f6134,
    type: 3}
  oneRowMiddle: {fileID: 8887218063473917309, guid: 422bf282ab870231d8b0ba7c571f6134,
    type: 3}
  oneRowRight: {fileID: -2629732630842474558, guid: 422bf282ab870231d8b0ba7c571f6134,
    type: 3}
