%YAML 1.1
%TAG !u! tag:unity3d.com,2011:
--- !u!29 &1
OcclusionCullingSettings:
  m_ObjectHideFlags: 0
  serializedVersion: 2
  m_OcclusionBakeSettings:
    smallestOccluder: 5
    smallestHole: 0.25
    backfaceThreshold: 100
  m_SceneGUID: 00000000000000000000000000000000
  m_OcclusionCullingData: {fileID: 0}
--- !u!104 &2
RenderSettings:
  m_ObjectHideFlags: 0
  serializedVersion: 9
  m_Fog: 0
  m_FogColor: {r: 0.5, g: 0.5, b: 0.5, a: 1}
  m_FogMode: 3
  m_FogDensity: 0.01
  m_LinearFogStart: 0
  m_LinearFogEnd: 300
  m_AmbientSkyColor: {r: 0.212, g: 0.227, b: 0.259, a: 1}
  m_AmbientEquatorColor: {r: 0.114, g: 0.125, b: 0.133, a: 1}
  m_AmbientGroundColor: {r: 0.047, g: 0.043, b: 0.035, a: 1}
  m_AmbientIntensity: 1
  m_AmbientMode: 3
  m_SubtractiveShadowColor: {r: 0.42, g: 0.478, b: 0.627, a: 1}
  m_SkyboxMaterial: {fileID: 0}
  m_HaloStrength: 0.5
  m_FlareStrength: 1
  m_FlareFadeSpeed: 3
  m_HaloTexture: {fileID: 0}
  m_SpotCookie: {fileID: 10001, guid: 0000000000000000e000000000000000, type: 0}
  m_DefaultReflectionMode: 0
  m_DefaultReflectionResolution: 128
  m_ReflectionBounces: 1
  m_ReflectionIntensity: 1
  m_CustomReflection: {fileID: 0}
  m_Sun: {fileID: 0}
  m_IndirectSpecularColor: {r: 0, g: 0, b: 0, a: 1}
  m_UseRadianceAmbientProbe: 0
--- !u!157 &3
LightmapSettings:
  m_ObjectHideFlags: 0
  serializedVersion: 11
  m_GIWorkflowMode: 1
  m_GISettings:
    serializedVersion: 2
    m_BounceScale: 1
    m_IndirectOutputScale: 1
    m_AlbedoBoost: 1
    m_EnvironmentLightingMode: 0
    m_EnableBakedLightmaps: 0
    m_EnableRealtimeLightmaps: 0
  m_LightmapEditorSettings:
    serializedVersion: 12
    m_Resolution: 2
    m_BakeResolution: 40
    m_AtlasSize: 1024
    m_AO: 0
    m_AOMaxDistance: 1
    m_CompAOExponent: 1
    m_CompAOExponentDirect: 0
    m_ExtractAmbientOcclusion: 0
    m_Padding: 2
    m_LightmapParameters: {fileID: 0}
    m_LightmapsBakeMode: 1
    m_TextureCompression: 1
    m_FinalGather: 0
    m_FinalGatherFiltering: 1
    m_FinalGatherRayCount: 256
    m_ReflectionCompression: 2
    m_MixedBakeMode: 2
    m_BakeBackend: 1
    m_PVRSampling: 1
    m_PVRDirectSampleCount: 32
    m_PVRSampleCount: 512
    m_PVRBounces: 2
    m_PVREnvironmentSampleCount: 256
    m_PVREnvironmentReferencePointCount: 2048
    m_PVRFilteringMode: 1
    m_PVRDenoiserTypeDirect: 1
    m_PVRDenoiserTypeIndirect: 1
    m_PVRDenoiserTypeAO: 1
    m_PVRFilterTypeDirect: 0
    m_PVRFilterTypeIndirect: 0
    m_PVRFilterTypeAO: 0
    m_PVREnvironmentMIS: 1
    m_PVRCulling: 1
    m_PVRFilteringGaussRadiusDirect: 1
    m_PVRFilteringGaussRadiusIndirect: 5
    m_PVRFilteringGaussRadiusAO: 2
    m_PVRFilteringAtrousPositionSigmaDirect: 0.5
    m_PVRFilteringAtrousPositionSigmaIndirect: 2
    m_PVRFilteringAtrousPositionSigmaAO: 1
    m_ExportTrainingData: 0
    m_TrainingDataDestination: TrainingData
  m_LightingDataAsset: {fileID: 0}
  m_UseShadowmask: 1
--- !u!196 &4
NavMeshSettings:
  serializedVersion: 2
  m_ObjectHideFlags: 0
  m_BuildSettings:
    serializedVersion: 2
    agentTypeID: 0
    agentRadius: 0.5
    agentHeight: 2
    agentSlope: 45
    agentClimb: 0.4
    ledgeDropHeight: 0
    maxJumpAcrossDistance: 0
    minRegionArea: 2
    manualCellSize: 0
    cellSize: 0.16666667
    manualTileSize: 0
    tileSize: 256
    accuratePlacement: 0
    debug:
      m_Flags: 0
  m_NavMeshData: {fileID: 0}
--- !u!1001 &15977138
PrefabInstance:
  m_ObjectHideFlags: 0
  serializedVersion: 2
  m_Modification:
    m_TransformParent: {fileID: 49341811}
    m_Modifications:
    - target: {fileID: 100000, guid: 18204b98237ccb540808f2cd2d78c2c8, type: 3}
      propertyPath: m_Name
      value: CFX4 Bubbles Whirl
      objectReference: {fileID: 0}
    - target: {fileID: 400000, guid: 18204b98237ccb540808f2cd2d78c2c8, type: 3}
      propertyPath: m_LocalPosition.x
      value: -10.92
      objectReference: {fileID: 0}
    - target: {fileID: 400000, guid: 18204b98237ccb540808f2cd2d78c2c8, type: 3}
      propertyPath: m_LocalPosition.y
      value: -7.16
      objectReference: {fileID: 0}
    - target: {fileID: 400000, guid: 18204b98237ccb540808f2cd2d78c2c8, type: 3}
      propertyPath: m_LocalPosition.z
      value: 0
      objectReference: {fileID: 0}
    - target: {fileID: 400000, guid: 18204b98237ccb540808f2cd2d78c2c8, type: 3}
      propertyPath: m_LocalRotation.x
      value: -0
      objectReference: {fileID: 0}
    - target: {fileID: 400000, guid: 18204b98237ccb540808f2cd2d78c2c8, type: 3}
      propertyPath: m_LocalRotation.y
      value: -0
      objectReference: {fileID: 0}
    - target: {fileID: 400000, guid: 18204b98237ccb540808f2cd2d78c2c8, type: 3}
      propertyPath: m_LocalRotation.z
      value: -0
      objectReference: {fileID: 0}
    - target: {fileID: 400000, guid: 18204b98237ccb540808f2cd2d78c2c8, type: 3}
      propertyPath: m_LocalRotation.w
      value: 1
      objectReference: {fileID: 0}
    - target: {fileID: 400000, guid: 18204b98237ccb540808f2cd2d78c2c8, type: 3}
      propertyPath: m_RootOrder
      value: 8
      objectReference: {fileID: 0}
    - target: {fileID: 400000, guid: 18204b98237ccb540808f2cd2d78c2c8, type: 3}
      propertyPath: m_LocalEulerAnglesHint.x
      value: 0
      objectReference: {fileID: 0}
    - target: {fileID: 400000, guid: 18204b98237ccb540808f2cd2d78c2c8, type: 3}
      propertyPath: m_LocalEulerAnglesHint.y
      value: 0
      objectReference: {fileID: 0}
    - target: {fileID: 400000, guid: 18204b98237ccb540808f2cd2d78c2c8, type: 3}
      propertyPath: m_LocalEulerAnglesHint.z
      value: 0
      objectReference: {fileID: 0}
    - target: {fileID: 400000, guid: 18204b98237ccb540808f2cd2d78c2c8, type: 3}
      propertyPath: m_LocalScale.x
      value: 0.90349996
      objectReference: {fileID: 0}
    - target: {fileID: 400000, guid: 18204b98237ccb540808f2cd2d78c2c8, type: 3}
      propertyPath: m_LocalScale.y
      value: 0.90349996
      objectReference: {fileID: 0}
    - target: {fileID: 400000, guid: 18204b98237ccb540808f2cd2d78c2c8, type: 3}
      propertyPath: m_LocalScale.z
      value: 0.90349996
      objectReference: {fileID: 0}
    - target: {fileID: 19800000, guid: 18204b98237ccb540808f2cd2d78c2c8, type: 3}
      propertyPath: lengthInSec
      value: 20
      objectReference: {fileID: 0}
    - target: {fileID: 19800000, guid: 18204b98237ccb540808f2cd2d78c2c8, type: 3}
      propertyPath: InitialModule.startLifetime.scalar
      value: 4
      objectReference: {fileID: 0}
    - target: {fileID: 19800000, guid: 18204b98237ccb540808f2cd2d78c2c8, type: 3}
      propertyPath: InitialModule.startSize.scalar
      value: 0.2
      objectReference: {fileID: 0}
    - target: {fileID: 19800000, guid: 18204b98237ccb540808f2cd2d78c2c8, type: 3}
      propertyPath: InitialModule.startSize.minScalar
      value: 0.8
      objectReference: {fileID: 0}
    - target: {fileID: 19800000, guid: 18204b98237ccb540808f2cd2d78c2c8, type: 3}
      propertyPath: EmissionModule.rateOverTime.scalar
      value: 5
      objectReference: {fileID: 0}
    m_RemovedComponents: []
  m_SourcePrefab: {fileID: 100100000, guid: 18204b98237ccb540808f2cd2d78c2c8, type: 3}
--- !u!4 &15977139 stripped
Transform:
  m_CorrespondingSourceObject: {fileID: 400000, guid: 18204b98237ccb540808f2cd2d78c2c8,
    type: 3}
  m_PrefabInstance: {fileID: 15977138}
  m_PrefabAsset: {fileID: 0}
--- !u!1 &49341810
GameObject:
  m_ObjectHideFlags: 0
  m_CorrespondingSourceObject: {fileID: 0}
  m_PrefabInstance: {fileID: 0}
  m_PrefabAsset: {fileID: 0}
  serializedVersion: 6
  m_Component:
  - component: {fileID: 49341811}
  m_Layer: 0
  m_Name: Environment
  m_TagString: Untagged
  m_Icon: {fileID: 0}
  m_NavMeshLayer: 0
  m_StaticEditorFlags: 0
  m_IsActive: 1
--- !u!4 &49341811
Transform:
  m_ObjectHideFlags: 0
  m_CorrespondingSourceObject: {fileID: 0}
  m_PrefabInstance: {fileID: 0}
  m_PrefabAsset: {fileID: 0}
  m_GameObject: {fileID: 49341810}
  m_LocalRotation: {x: 0, y: 0, z: 0, w: 1}
  m_LocalPosition: {x: 0, y: 0, z: 0}
  m_LocalScale: {x: 1, y: 1, z: 1}
  m_Children:
  - {fileID: 1605041347}
  - {fileID: 1581513754}
  - {fileID: 15977139}
  - {fileID: 1548233187}
  - {fileID: 1772428348}
  - {fileID: 1146920407}
  m_Father: {fileID: 0}
  m_RootOrder: 1
  m_LocalEulerAnglesHint: {x: 0, y: 0, z: 0}
--- !u!1 &319226801
GameObject:
  m_ObjectHideFlags: 0
  m_CorrespondingSourceObject: {fileID: 0}
  m_PrefabInstance: {fileID: 0}
  m_PrefabAsset: {fileID: 0}
  serializedVersion: 6
  m_Component:
  - component: {fileID: 319226806}
  - component: {fileID: 319226804}
  - component: {fileID: 319226803}
  - component: {fileID: 319226807}
  m_Layer: 0
  m_Name: press-any-key
  m_TagString: Untagged
  m_Icon: {fileID: 0}
  m_NavMeshLayer: 0
  m_StaticEditorFlags: 0
  m_IsActive: 1
--- !u!222 &319226803
CanvasRenderer:
  m_ObjectHideFlags: 2
  m_CorrespondingSourceObject: {fileID: 0}
  m_PrefabInstance: {fileID: 0}
  m_PrefabAsset: {fileID: 0}
  m_GameObject: {fileID: 319226801}
  m_CullTransparentMesh: 0
--- !u!33 &319226804
MeshFilter:
  m_ObjectHideFlags: 2
  m_CorrespondingSourceObject: {fileID: 0}
  m_PrefabInstance: {fileID: 0}
  m_PrefabAsset: {fileID: 0}
  m_GameObject: {fileID: 319226801}
  m_Mesh: {fileID: 0}
--- !u!224 &319226806
RectTransform:
  m_ObjectHideFlags: 0
  m_CorrespondingSourceObject: {fileID: 0}
  m_PrefabInstance: {fileID: 0}
  m_PrefabAsset: {fileID: 0}
  m_GameObject: {fileID: 319226801}
  m_LocalRotation: {x: 0, y: 0, z: 0, w: 1}
  m_LocalPosition: {x: 0, y: 0, z: 0}
  m_LocalScale: {x: 0.50172, y: 0.50172, z: 0.50172}
  m_Children: []
  m_Father: {fileID: 0}
  m_RootOrder: 2
  m_LocalEulerAnglesHint: {x: 0, y: 0, z: 0}
  m_AnchorMin: {x: 0.5, y: 0.5}
  m_AnchorMax: {x: 0.5, y: 0.5}
  m_AnchoredPosition: {x: 0, y: 6.62}
  m_SizeDelta: {x: 13.65, y: 2.52}
  m_Pivot: {x: 0.5, y: 0.5}
--- !u!114 &319226807
MonoBehaviour:
  m_ObjectHideFlags: 0
  m_CorrespondingSourceObject: {fileID: 0}
  m_PrefabInstance: {fileID: 0}
  m_PrefabAsset: {fileID: 0}
  m_GameObject: {fileID: 319226801}
  m_Enabled: 1
  m_EditorHideFlags: 0
  m_Script: {fileID: 11500000, guid: 511ed998521e2afb0ba9714cade341b9, type: 3}
  m_Name: 
  m_EditorClassIdentifier: 
  sceneIndex: 1
  active: 1
--- !u!1 &1034620832
GameObject:
  m_ObjectHideFlags: 0
  m_CorrespondingSourceObject: {fileID: 0}
  m_PrefabInstance: {fileID: 0}
  m_PrefabAsset: {fileID: 0}
  serializedVersion: 6
  m_Component:
  - component: {fileID: 1034620835}
  - component: {fileID: 1034620834}
  - component: {fileID: 1034620833}
  m_Layer: 0
  m_Name: Main Camera
  m_TagString: MainCamera
  m_Icon: {fileID: 0}
  m_NavMeshLayer: 0
  m_StaticEditorFlags: 0
  m_IsActive: 1
--- !u!81 &1034620833
AudioListener:
  m_ObjectHideFlags: 0
  m_CorrespondingSourceObject: {fileID: 0}
  m_PrefabInstance: {fileID: 0}
  m_PrefabAsset: {fileID: 0}
  m_GameObject: {fileID: 1034620832}
  m_Enabled: 1
--- !u!20 &1034620834
Camera:
  m_ObjectHideFlags: 0
  m_CorrespondingSourceObject: {fileID: 0}
  m_PrefabInstance: {fileID: 0}
  m_PrefabAsset: {fileID: 0}
  m_GameObject: {fileID: 1034620832}
  m_Enabled: 1
  serializedVersion: 2
  m_ClearFlags: 1
  m_BackGroundColor: {r: 0.16037738, g: 0.16037738, b: 0.20784314, a: 1}
  m_projectionMatrixMode: 1
  m_GateFitMode: 2
  m_FOVAxisMode: 0
  m_SensorSize: {x: 36, y: 24}
  m_LensShift: {x: 0, y: 0}
  m_FocalLength: 50
  m_NormalizedViewPortRect:
    serializedVersion: 2
    x: 0
    y: 0
    width: 1
    height: 1
  near clip plane: 0.3
  far clip plane: 1000
  field of view: 60
  orthographic: 1
  orthographic size: 8.07
  m_Depth: -1
  m_CullingMask:
    serializedVersion: 2
    m_Bits: 4294967295
  m_RenderingPath: -1
  m_TargetTexture: {fileID: 0}
  m_TargetDisplay: 0
  m_TargetEye: 3
  m_HDR: 1
  m_AllowMSAA: 1
  m_AllowDynamicResolution: 0
  m_ForceIntoRT: 0
  m_OcclusionCulling: 1
  m_StereoConvergence: 10
  m_StereoSeparation: 0.022
--- !u!4 &1034620835
Transform:
  m_ObjectHideFlags: 0
  m_CorrespondingSourceObject: {fileID: 0}
  m_PrefabInstance: {fileID: 0}
  m_PrefabAsset: {fileID: 0}
  m_GameObject: {fileID: 1034620832}
  m_LocalRotation: {x: 0, y: 0, z: 0, w: 1}
  m_LocalPosition: {x: 0, y: 0, z: -10}
  m_LocalScale: {x: 1, y: 1, z: 1}
  m_Children: []
  m_Father: {fileID: 0}
  m_RootOrder: 0
  m_LocalEulerAnglesHint: {x: 0, y: 0, z: 0}
--- !u!1 &1146920406
GameObject:
  m_ObjectHideFlags: 0
  m_CorrespondingSourceObject: {fileID: 0}
  m_PrefabInstance: {fileID: 0}
  m_PrefabAsset: {fileID: 0}
  serializedVersion: 6
  m_Component:
  - component: {fileID: 1146920407}
  - component: {fileID: 1146920408}
  m_Layer: 0
  m_Name: credit_final
  m_TagString: Untagged
  m_Icon: {fileID: 0}
  m_NavMeshLayer: 0
  m_StaticEditorFlags: 0
  m_IsActive: 1
--- !u!4 &1146920407
Transform:
  m_ObjectHideFlags: 0
  m_CorrespondingSourceObject: {fileID: 0}
  m_PrefabInstance: {fileID: 0}
  m_PrefabAsset: {fileID: 0}
  m_GameObject: {fileID: 1146920406}
  m_LocalRotation: {x: -0, y: -0, z: -0, w: 1}
  m_LocalPosition: {x: 0, y: 0, z: 0}
  m_LocalScale: {x: 1, y: 1, z: 1}
  m_Children: []
  m_Father: {fileID: 49341811}
  m_RootOrder: 5
  m_LocalEulerAnglesHint: {x: 0, y: 0, z: 0}
--- !u!212 &1146920408
SpriteRenderer:
  m_ObjectHideFlags: 0
  m_CorrespondingSourceObject: {fileID: 0}
  m_PrefabInstance: {fileID: 0}
  m_PrefabAsset: {fileID: 0}
  m_GameObject: {fileID: 1146920406}
  m_Enabled: 1
  m_CastShadows: 0
  m_ReceiveShadows: 0
  m_DynamicOccludee: 1
  m_MotionVectors: 1
  m_LightProbeUsage: 1
  m_ReflectionProbeUsage: 1
  m_RenderingLayerMask: 1
  m_RendererPriority: 0
  m_Materials:
  - {fileID: 10754, guid: 0000000000000000f000000000000000, type: 0}
  m_StaticBatchInfo:
    firstSubMesh: 0
    subMeshCount: 0
  m_StaticBatchRoot: {fileID: 0}
  m_ProbeAnchor: {fileID: 0}
  m_LightProbeVolumeOverride: {fileID: 0}
  m_ScaleInLightmap: 1
  m_ReceiveGI: 1
  m_PreserveUVs: 0
  m_IgnoreNormalsForChartDetection: 0
  m_ImportantGI: 0
  m_StitchLightmapSeams: 1
  m_SelectedEditorRenderState: 0
  m_MinimumChartSize: 4
  m_AutoUVMaxDistance: 0.5
  m_AutoUVMaxAngle: 89
  m_LightmapParameters: {fileID: 0}
  m_SortingLayerID: 0
  m_SortingLayer: 0
  m_SortingOrder: 0
  m_Sprite: {fileID: 21300000, guid: f142d4d1bad765895b6533189ebf23ff, type: 3}
  m_Color: {r: 1, g: 1, b: 1, a: 1}
  m_FlipX: 0
  m_FlipY: 0
  m_DrawMode: 0
  m_Size: {x: 30, y: 16.875}
  m_AdaptiveModeThreshold: 0.5
  m_SpriteTileMode: 0
  m_WasSpriteAssigned: 1
  m_MaskInteraction: 0
  m_SpriteSortPoint: 0
--- !u!1001 &1548233186
PrefabInstance:
  m_ObjectHideFlags: 0
  serializedVersion: 2
  m_Modification:
    m_TransformParent: {fileID: 49341811}
    m_Modifications:
    - target: {fileID: 100000, guid: 18204b98237ccb540808f2cd2d78c2c8, type: 3}
      propertyPath: m_Name
      value: CFX4 Bubbles Whirl (1)
      objectReference: {fileID: 0}
    - target: {fileID: 400000, guid: 18204b98237ccb540808f2cd2d78c2c8, type: 3}
      propertyPath: m_LocalPosition.x
      value: 3.54
      objectReference: {fileID: 0}
    - target: {fileID: 400000, guid: 18204b98237ccb540808f2cd2d78c2c8, type: 3}
      propertyPath: m_LocalPosition.y
      value: 1.67
      objectReference: {fileID: 0}
    - target: {fileID: 400000, guid: 18204b98237ccb540808f2cd2d78c2c8, type: 3}
      propertyPath: m_LocalPosition.z
      value: 0
      objectReference: {fileID: 0}
    - target: {fileID: 400000, guid: 18204b98237ccb540808f2cd2d78c2c8, type: 3}
      propertyPath: m_LocalRotation.x
      value: -0
      objectReference: {fileID: 0}
    - target: {fileID: 400000, guid: 18204b98237ccb540808f2cd2d78c2c8, type: 3}
      propertyPath: m_LocalRotation.y
      value: -0
      objectReference: {fileID: 0}
    - target: {fileID: 400000, guid: 18204b98237ccb540808f2cd2d78c2c8, type: 3}
      propertyPath: m_LocalRotation.z
      value: -0
      objectReference: {fileID: 0}
    - target: {fileID: 400000, guid: 18204b98237ccb540808f2cd2d78c2c8, type: 3}
      propertyPath: m_LocalRotation.w
      value: 1
      objectReference: {fileID: 0}
    - target: {fileID: 400000, guid: 18204b98237ccb540808f2cd2d78c2c8, type: 3}
      propertyPath: m_RootOrder
      value: 9
      objectReference: {fileID: 0}
    - target: {fileID: 400000, guid: 18204b98237ccb540808f2cd2d78c2c8, type: 3}
      propertyPath: m_LocalEulerAnglesHint.x
      value: 0
      objectReference: {fileID: 0}
    - target: {fileID: 400000, guid: 18204b98237ccb540808f2cd2d78c2c8, type: 3}
      propertyPath: m_LocalEulerAnglesHint.y
      value: 0
      objectReference: {fileID: 0}
    - target: {fileID: 400000, guid: 18204b98237ccb540808f2cd2d78c2c8, type: 3}
      propertyPath: m_LocalEulerAnglesHint.z
      value: 0
      objectReference: {fileID: 0}
    - target: {fileID: 400000, guid: 18204b98237ccb540808f2cd2d78c2c8, type: 3}
      propertyPath: m_LocalScale.x
      value: 0.90349996
      objectReference: {fileID: 0}
    - target: {fileID: 400000, guid: 18204b98237ccb540808f2cd2d78c2c8, type: 3}
      propertyPath: m_LocalScale.y
      value: 0.90349996
      objectReference: {fileID: 0}
    - target: {fileID: 400000, guid: 18204b98237ccb540808f2cd2d78c2c8, type: 3}
      propertyPath: m_LocalScale.z
      value: 0.90349996
      objectReference: {fileID: 0}
    - target: {fileID: 19800000, guid: 18204b98237ccb540808f2cd2d78c2c8, type: 3}
      propertyPath: lengthInSec
      value: 2
      objectReference: {fileID: 0}
    - target: {fileID: 19800000, guid: 18204b98237ccb540808f2cd2d78c2c8, type: 3}
      propertyPath: InitialModule.startLifetime.scalar
      value: 4
      objectReference: {fileID: 0}
    - target: {fileID: 19800000, guid: 18204b98237ccb540808f2cd2d78c2c8, type: 3}
      propertyPath: InitialModule.startLifetime.minScalar
      value: 1.5
      objectReference: {fileID: 0}
    - target: {fileID: 19800000, guid: 18204b98237ccb540808f2cd2d78c2c8, type: 3}
      propertyPath: InitialModule.startSize.scalar
      value: 0.1
      objectReference: {fileID: 0}
    - target: {fileID: 19800000, guid: 18204b98237ccb540808f2cd2d78c2c8, type: 3}
      propertyPath: InitialModule.startSize.minScalar
      value: 0.6
      objectReference: {fileID: 0}
    - target: {fileID: 19800000, guid: 18204b98237ccb540808f2cd2d78c2c8, type: 3}
      propertyPath: EmissionModule.rateOverTime.scalar
      value: 20
      objectReference: {fileID: 0}
    m_RemovedComponents: []
  m_SourcePrefab: {fileID: 100100000, guid: 18204b98237ccb540808f2cd2d78c2c8, type: 3}
--- !u!4 &1548233187 stripped
Transform:
  m_CorrespondingSourceObject: {fileID: 400000, guid: 18204b98237ccb540808f2cd2d78c2c8,
    type: 3}
  m_PrefabInstance: {fileID: 1548233186}
  m_PrefabAsset: {fileID: 0}
--- !u!1001 &1581513753
PrefabInstance:
  m_ObjectHideFlags: 0
  serializedVersion: 2
  m_Modification:
    m_TransformParent: {fileID: 49341811}
    m_Modifications:
    - target: {fileID: 2320314501363456999, guid: d9db3a2e57cc0d1de9f13ec907669ce2,
        type: 3}
      propertyPath: m_Name
      value: LightRays2D
      objectReference: {fileID: 0}
    - target: {fileID: 2320314501363457019, guid: d9db3a2e57cc0d1de9f13ec907669ce2,
        type: 3}
      propertyPath: m_LocalPosition.x
      value: 0
      objectReference: {fileID: 0}
    - target: {fileID: 2320314501363457019, guid: d9db3a2e57cc0d1de9f13ec907669ce2,
        type: 3}
      propertyPath: m_LocalPosition.y
      value: 0
      objectReference: {fileID: 0}
    - target: {fileID: 2320314501363457019, guid: d9db3a2e57cc0d1de9f13ec907669ce2,
        type: 3}
      propertyPath: m_LocalPosition.z
      value: 0
      objectReference: {fileID: 0}
    - target: {fileID: 2320314501363457019, guid: d9db3a2e57cc0d1de9f13ec907669ce2,
        type: 3}
      propertyPath: m_LocalRotation.x
      value: -0
      objectReference: {fileID: 0}
    - target: {fileID: 2320314501363457019, guid: d9db3a2e57cc0d1de9f13ec907669ce2,
        type: 3}
      propertyPath: m_LocalRotation.y
      value: -0
      objectReference: {fileID: 0}
    - target: {fileID: 2320314501363457019, guid: d9db3a2e57cc0d1de9f13ec907669ce2,
        type: 3}
      propertyPath: m_LocalRotation.z
      value: -0
      objectReference: {fileID: 0}
    - target: {fileID: 2320314501363457019, guid: d9db3a2e57cc0d1de9f13ec907669ce2,
        type: 3}
      propertyPath: m_LocalRotation.w
      value: 1
      objectReference: {fileID: 0}
    - target: {fileID: 2320314501363457019, guid: d9db3a2e57cc0d1de9f13ec907669ce2,
        type: 3}
      propertyPath: m_RootOrder
      value: 5
      objectReference: {fileID: 0}
    - target: {fileID: 2320314501363457019, guid: d9db3a2e57cc0d1de9f13ec907669ce2,
        type: 3}
      propertyPath: m_LocalEulerAnglesHint.x
      value: 0
      objectReference: {fileID: 0}
    - target: {fileID: 2320314501363457019, guid: d9db3a2e57cc0d1de9f13ec907669ce2,
        type: 3}
      propertyPath: m_LocalEulerAnglesHint.y
      value: 0
      objectReference: {fileID: 0}
    - target: {fileID: 2320314501363457019, guid: d9db3a2e57cc0d1de9f13ec907669ce2,
        type: 3}
      propertyPath: m_LocalEulerAnglesHint.z
      value: 0
      objectReference: {fileID: 0}
    - target: {fileID: 2320314501363457019, guid: d9db3a2e57cc0d1de9f13ec907669ce2,
        type: 3}
      propertyPath: m_LocalScale.x
      value: 30.240763
      objectReference: {fileID: 0}
    - target: {fileID: 2320314501363457019, guid: d9db3a2e57cc0d1de9f13ec907669ce2,
        type: 3}
      propertyPath: m_LocalScale.y
      value: 18.06548
      objectReference: {fileID: 0}
    - target: {fileID: 2320314501363457019, guid: d9db3a2e57cc0d1de9f13ec907669ce2,
        type: 3}
      propertyPath: m_LocalScale.z
      value: 4.5175
      objectReference: {fileID: 0}
    m_RemovedComponents: []
  m_SourcePrefab: {fileID: 100100000, guid: d9db3a2e57cc0d1de9f13ec907669ce2, type: 3}
--- !u!4 &1581513754 stripped
Transform:
  m_CorrespondingSourceObject: {fileID: 2320314501363457019, guid: d9db3a2e57cc0d1de9f13ec907669ce2,
    type: 3}
  m_PrefabInstance: {fileID: 1581513753}
  m_PrefabAsset: {fileID: 0}
--- !u!1001 &1605041346
PrefabInstance:
  m_ObjectHideFlags: 0
  serializedVersion: 2
  m_Modification:
    m_TransformParent: {fileID: 49341811}
    m_Modifications:
    - target: {fileID: 3153983774594339152, guid: 654c180a18c11b113ac87c3104f72aab,
        type: 3}
      propertyPath: m_Name
      value: CFX3_Flying_Ember_Upward_MainMenu
      objectReference: {fileID: 0}
    - target: {fileID: 3153983774594502000, guid: 654c180a18c11b113ac87c3104f72aab,
        type: 3}
      propertyPath: m_LocalPosition.x
      value: 0
      objectReference: {fileID: 0}
    - target: {fileID: 3153983774594502000, guid: 654c180a18c11b113ac87c3104f72aab,
        type: 3}
      propertyPath: m_LocalPosition.y
      value: -0.9
      objectReference: {fileID: 0}
    - target: {fileID: 3153983774594502000, guid: 654c180a18c11b113ac87c3104f72aab,
        type: 3}
      propertyPath: m_LocalPosition.z
      value: 0
      objectReference: {fileID: 0}
    - target: {fileID: 3153983774594502000, guid: 654c180a18c11b113ac87c3104f72aab,
        type: 3}
      propertyPath: m_LocalRotation.x
      value: -0
      objectReference: {fileID: 0}
    - target: {fileID: 3153983774594502000, guid: 654c180a18c11b113ac87c3104f72aab,
        type: 3}
      propertyPath: m_LocalRotation.y
      value: -0
      objectReference: {fileID: 0}
    - target: {fileID: 3153983774594502000, guid: 654c180a18c11b113ac87c3104f72aab,
        type: 3}
      propertyPath: m_LocalRotation.z
      value: -0
      objectReference: {fileID: 0}
    - target: {fileID: 3153983774594502000, guid: 654c180a18c11b113ac87c3104f72aab,
        type: 3}
      propertyPath: m_LocalRotation.w
      value: 1
      objectReference: {fileID: 0}
    - target: {fileID: 3153983774594502000, guid: 654c180a18c11b113ac87c3104f72aab,
        type: 3}
      propertyPath: m_RootOrder
      value: 4
      objectReference: {fileID: 0}
    - target: {fileID: 3153983774594502000, guid: 654c180a18c11b113ac87c3104f72aab,
        type: 3}
      propertyPath: m_LocalEulerAnglesHint.x
      value: 0
      objectReference: {fileID: 0}
    - target: {fileID: 3153983774594502000, guid: 654c180a18c11b113ac87c3104f72aab,
        type: 3}
      propertyPath: m_LocalEulerAnglesHint.y
      value: 0
      objectReference: {fileID: 0}
    - target: {fileID: 3153983774594502000, guid: 654c180a18c11b113ac87c3104f72aab,
        type: 3}
      propertyPath: m_LocalEulerAnglesHint.z
      value: 0
      objectReference: {fileID: 0}
    m_RemovedComponents: []
  m_SourcePrefab: {fileID: 100100000, guid: 654c180a18c11b113ac87c3104f72aab, type: 3}
--- !u!4 &1605041347 stripped
Transform:
  m_CorrespondingSourceObject: {fileID: 3153983774594502000, guid: 654c180a18c11b113ac87c3104f72aab,
    type: 3}
  m_PrefabInstance: {fileID: 1605041346}
  m_PrefabAsset: {fileID: 0}
--- !u!1001 &1772428347
PrefabInstance:
  m_ObjectHideFlags: 0
  serializedVersion: 2
  m_Modification:
    m_TransformParent: {fileID: 49341811}
    m_Modifications:
    - target: {fileID: 100000, guid: 18204b98237ccb540808f2cd2d78c2c8, type: 3}
      propertyPath: m_Name
      value: CFX4 Bubbles Whirl (2)
      objectReference: {fileID: 0}
    - target: {fileID: 400000, guid: 18204b98237ccb540808f2cd2d78c2c8, type: 3}
      propertyPath: m_LocalPosition.x
      value: 11.32989
      objectReference: {fileID: 0}
    - target: {fileID: 400000, guid: 18204b98237ccb540808f2cd2d78c2c8, type: 3}
      propertyPath: m_LocalPosition.y
      value: -0.1807
      objectReference: {fileID: 0}
    - target: {fileID: 400000, guid: 18204b98237ccb540808f2cd2d78c2c8, type: 3}
      propertyPath: m_LocalPosition.z
      value: 0
      objectReference: {fileID: 0}
    - target: {fileID: 400000, guid: 18204b98237ccb540808f2cd2d78c2c8, type: 3}
      propertyPath: m_LocalRotation.x
      value: -0
      objectReference: {fileID: 0}
    - target: {fileID: 400000, guid: 18204b98237ccb540808f2cd2d78c2c8, type: 3}
      propertyPath: m_LocalRotation.y
      value: -0
      objectReference: {fileID: 0}
    - target: {fileID: 400000, guid: 18204b98237ccb540808f2cd2d78c2c8, type: 3}
      propertyPath: m_LocalRotation.z
      value: -0
      objectReference: {fileID: 0}
    - target: {fileID: 400000, guid: 18204b98237ccb540808f2cd2d78c2c8, type: 3}
      propertyPath: m_LocalRotation.w
      value: 1
      objectReference: {fileID: 0}
    - target: {fileID: 400000, guid: 18204b98237ccb540808f2cd2d78c2c8, type: 3}
      propertyPath: m_RootOrder
      value: 10
      objectReference: {fileID: 0}
    - target: {fileID: 400000, guid: 18204b98237ccb540808f2cd2d78c2c8, type: 3}
      propertyPath: m_LocalEulerAnglesHint.x
      value: 0
      objectReference: {fileID: 0}
    - target: {fileID: 400000, guid: 18204b98237ccb540808f2cd2d78c2c8, type: 3}
      propertyPath: m_LocalEulerAnglesHint.y
      value: 0
      objectReference: {fileID: 0}
    - target: {fileID: 400000, guid: 18204b98237ccb540808f2cd2d78c2c8, type: 3}
      propertyPath: m_LocalEulerAnglesHint.z
      value: 0
      objectReference: {fileID: 0}
    - target: {fileID: 400000, guid: 18204b98237ccb540808f2cd2d78c2c8, type: 3}
      propertyPath: m_LocalScale.x
      value: 0.90349996
      objectReference: {fileID: 0}
    - target: {fileID: 400000, guid: 18204b98237ccb540808f2cd2d78c2c8, type: 3}
      propertyPath: m_LocalScale.y
      value: 0.90349996
      objectReference: {fileID: 0}
    - target: {fileID: 400000, guid: 18204b98237ccb540808f2cd2d78c2c8, type: 3}
      propertyPath: m_LocalScale.z
      value: 0.90349996
      objectReference: {fileID: 0}
    - target: {fileID: 19800000, guid: 18204b98237ccb540808f2cd2d78c2c8, type: 3}
      propertyPath: lengthInSec
      value: 20
      objectReference: {fileID: 0}
    - target: {fileID: 19800000, guid: 18204b98237ccb540808f2cd2d78c2c8, type: 3}
      propertyPath: InitialModule.startLifetime.scalar
      value: 4
      objectReference: {fileID: 0}
    - target: {fileID: 19800000, guid: 18204b98237ccb540808f2cd2d78c2c8, type: 3}
      propertyPath: InitialModule.startSize.scalar
      value: 0.1
      objectReference: {fileID: 0}
    - target: {fileID: 19800000, guid: 18204b98237ccb540808f2cd2d78c2c8, type: 3}
      propertyPath: InitialModule.startSize.minScalar
      value: 0.3
      objectReference: {fileID: 0}
    - target: {fileID: 19800000, guid: 18204b98237ccb540808f2cd2d78c2c8, type: 3}
      propertyPath: EmissionModule.rateOverTime.scalar
      value: 5
      objectReference: {fileID: 0}
    m_RemovedComponents: []
  m_SourcePrefab: {fileID: 100100000, guid: 18204b98237ccb540808f2cd2d78c2c8, type: 3}
--- !u!4 &1772428348 stripped
Transform:
  m_CorrespondingSourceObject: {fileID: 400000, guid: 18204b98237ccb540808f2cd2d78c2c8,
    type: 3}
  m_PrefabInstance: {fileID: 1772428347}
  m_PrefabAsset: {fileID: 0}
